<?xml version="1.0" encoding="iso-8859-1"?>
<!-- Generator: Adobe Illustrator 19.0.0, SVG Export Plug-In . SVG Version: 6.00 Build 0)  -->
<svg version="1.1" id="Capa_1" xmlns="http://www.w3.org/2000/svg" xmlns:xlink="http://www.w3.org/1999/xlink" x="0px" y="0px"
	 viewBox="0 0 512 512" style="enable-background:new 0 0 512 512;" xml:space="preserve">
<path style="fill:#9C969E;" d="M256,207.903c-26.563,0-48.097,12.92-48.097,28.858v179.561h96.194V236.761
	C304.097,220.823,282.563,207.903,256,207.903z"/>
<path style="fill:#867E88;" d="M239.968,384.258V236.761c0-13.965,11.023-25.607,25.665-28.277c-3.113-0.38-6.333-0.581-9.633-0.581
	c-26.563,0-48.097,12.92-48.097,28.858v187.578h96.194v-40.081L239.968,384.258L239.968,384.258z"/>
<rect x="207.9" y="384.26" style="fill:#6F6571;" width="32.06" height="32.06"/>
<path style="fill:#966464;" d="M336.161,416.323h-144.29c-4.427,0-8.016,3.589-8.016,8.016v24.048h152.306V416.323z"/>
<path style="fill:#9C969E;" d="M408.306,167.823c-26.563,0-48.097,12.92-48.097,28.858v187.578h96.194V196.68
	C456.403,180.743,434.87,167.823,408.306,167.823z"/>
<path style="fill:#867E88;" d="M392.274,344.177V196.68c0-13.965,11.023-25.607,25.665-28.277c-3.113-0.38-6.333-0.581-9.633-0.581
	c-26.563,0-48.097,12.92-48.097,28.858v179.561h96.194v-32.065h-64.129V344.177z"/>
<rect x="360.21" y="344.18" style="fill:#6F6571;" width="32.06" height="32.06"/>
<path style="fill:#966464;" d="M480.452,448.387h-144.29v-64.129c0-4.427,3.589-8.016,8.016-8.016h128.258
	c4.427,0,8.016,3.589,8.016,8.016L480.452,448.387L480.452,448.387z"/>
<g>
	<path style="fill:#7D5555;" d="M344.177,376.242c-4.427,0-8.016,3.589-8.016,8.016v64.129h40.081v-72.145H344.177z"/>
	<path style="fill:#7D5555;" d="M191.871,416.323c-4.427,0-8.016,3.589-8.016,8.016v24.048h40.081v-32.065h-32.065V416.323z"/>
</g>
<rect x="103.69" y="95.68" style="fill:#BE8282;" width="32.06" height="112.23"/>
<rect x="103.69" y="63.61" style="fill:#AEA8AF;" width="32.06" height="32.06"/>
<rect x="23.532" y="207.9" style="fill:#966464;" width="128.26" height="240.48"/>
<rect x="55.6" y="256" style="fill:#5D5360;" width="64.13" height="48.1"/>
<rect x="55.6" y="256" style="fill:#4B3F4E;" width="64.13" height="24.05"/>
<rect x="55.6" y="336.16" style="fill:#5D5360;" width="64.13" height="72.14"/>
<rect x="55.6" y="336.16" style="fill:#4B3F4E;" width="64.13" height="24.05"/>
<path d="M504.5,440.887h-16.548v-56.629c0-8.556-6.96-15.516-15.516-15.516h-8.532V196.681c0-18.72-20.595-33.705-48.097-36.033
	v-8.857c0-12.976-10.557-23.532-23.532-23.532H272.032c-12.976,0-23.532,10.557-23.532,23.532v48.938
	c-27.502,2.328-48.097,17.313-48.097,36.033v91.9H159.29V207.903c0-4.142-3.358-7.5-7.5-7.5h-8.532V63.613
	c0-4.142-3.358-7.5-7.5-7.5h-32.065c-4.142,0-7.5,3.358-7.5,7.5v136.791H79.129V111.71c0-4.143-3.358-7.5-7.5-7.5
	s-7.5,3.357-7.5,7.5v88.693H23.532c-4.142,0-7.5,3.358-7.5,7.5v232.984H7.5c-4.142,0-7.5,3.358-7.5,7.5s3.358,7.5,7.5,7.5h497
	c4.142,0,7.5-3.358,7.5-7.5S508.642,440.887,504.5,440.887z M472.952,384.258v56.629H343.661v-56.629
	c0-0.284,0.231-0.516,0.516-0.516h128.258C472.72,383.742,472.952,383.974,472.952,384.258z M159.291,375.726h41.113v33.097h-8.532
	c-8.556,0-15.516,6.961-15.516,15.517v16.548h-17.064L159.291,375.726L159.291,375.726z M296.597,408.822h-81.193v-17.064h81.193
	V408.822z M191.355,424.339c0-0.285,0.231-0.517,0.516-0.517h136.79v17.065H191.355V424.339z M367.709,368.742v-17.064h81.194
	v17.064H367.709z M448.903,196.681v3.723h-8.533c-4.142,0-7.5,3.358-7.5,7.5s3.358,7.5,7.5,7.5h8.533v121.274h-81.194V215.403
	h40.598c4.142,0,7.5-3.358,7.5-7.5s-3.358-7.5-7.5-7.5h-40.598v-3.723c0-11.378,18.971-21.358,40.597-21.358
	S448.903,185.303,448.903,196.681z M272.032,143.258h120.242c4.705,0,8.532,3.828,8.532,8.532v8.857
	c-27.502,2.328-48.097,17.313-48.097,36.033v172.062h-8.532c-8.556,0-15.516,6.96-15.516,15.516v24.564h-17.064V236.761
	c0-18.72-20.595-33.705-48.097-36.033V151.79C263.5,147.086,267.328,143.258,272.032,143.258z M256,215.403
	c21.626,0,40.597,9.98,40.597,21.358v3.723h-8.533c-4.142,0-7.5,3.358-7.5,7.5s3.358,7.5,7.5,7.5h8.533v121.274h-81.193V255.484H256
	c4.142,0,7.5-3.358,7.5-7.5s-3.358-7.5-7.5-7.5h-40.597v-3.723C215.403,225.384,234.374,215.403,256,215.403z M200.403,343.661
	v17.064H159.29v-17.064H200.403z M128.258,71.113v17.065h-17.065V71.113H128.258z M111.193,103.178h17.065v97.226h-17.065
	C111.193,200.404,111.193,103.178,111.193,103.178z M31.032,215.403H144.29v225.484H31.032V215.403z"/>
<path d="M119.726,328.661H55.597c-4.142,0-7.5,3.358-7.5,7.5v72.146c0,4.142,3.358,7.5,7.5,7.5h64.129c4.142,0,7.5-3.358,7.5-7.5
	v-72.146C127.226,332.02,123.868,328.661,119.726,328.661z M63.097,343.661h17.064v57.146H63.097V343.661z M112.226,400.807H95.161
	v-57.146h17.064L112.226,400.807L112.226,400.807z"/>
<path d="M119.726,248.5H55.597c-4.142,0-7.5,3.358-7.5,7.5v48.097c0,4.142,3.358,7.5,7.5,7.5h64.129c4.142,0,7.5-3.358,7.5-7.5V256
	C127.226,251.858,123.868,248.5,119.726,248.5z M63.097,263.5h17.064v33.097H63.097V263.5z M112.226,296.597H95.161V263.5h17.064
	L112.226,296.597L112.226,296.597z"/>
<g>
</g>
<g>
</g>
<g>
</g>
<g>
</g>
<g>
</g>
<g>
</g>
<g>
</g>
<g>
</g>
<g>
</g>
<g>
</g>
<g>
</g>
<g>
</g>
<g>
</g>
<g>
</g>
<g>
</g>
</svg>
